{
	"id": "custom_picker",
	"name": "custom_picker",
	"description" : "",
	"author": "",
	"version": "1.0",
	"copyright":"Copyright (c) 2015",
	"license":"Public Domain",
	"min-alloy-version": "1.0",
	"min-titanium-version":"2.1",
	"tags":"",
	"platforms":"android,ios"
}